# ../../sources/configure --target=armv7-android-gcc --disable-examples --sdk-path=/home/user/Desktop/NDK
Configuring selected codecs
  enabling vp8_encoder
  enabling vp8_decoder
Configuring for target 'armv7-android-gcc'
  enabling armv7
  enabling neon
  enabling media
  enabling edsp
  enabling fast_unaligned
add_asflags --defsym ARCHITECTURE=7
check_cflags -mfpu=neon
check_cc -mfpu=neon
BEGIN /tmp/vpx-conf-4566-4241.c
    1	int x;
END /tmp/vpx-conf-4566-4241.c
arm-none-linux-gnueabi-gcc -mfpu=neon -c -o /tmp/vpx-conf-4566-18429.o /tmp/vpx-conf-4566-4241.c
../../sources/build/make/configure.sh: line 270: arm-none-linux-gnueabi-gcc: command not found
add_asflags -mfpu=neon
check_cflags -march=armv7-a -mcpu=cortex-a8 -mfloat-abi=softfp
check_cc -march=armv7-a -mcpu=cortex-a8 -mfloat-abi=softfp
BEGIN /tmp/vpx-conf-4566-4241.c
    1	int x;
END /tmp/vpx-conf-4566-4241.c
arm-none-linux-gnueabi-gcc -march=armv7-a -mcpu=cortex-a8 -mfloat-abi=softfp -c -o /tmp/vpx-conf-4566-18429.o /tmp/vpx-conf-4566-4241.c
../../sources/build/make/configure.sh: line 270: arm-none-linux-gnueabi-gcc: command not found
add_asflags -mcpu=cortex-a8 -mfloat-abi=softfp
  enabling realtime_only
check_cflags -O3
check_cc -O3
BEGIN /tmp/vpx-conf-4566-4241.c
    1	int x;
END /tmp/vpx-conf-4566-4241.c
/home/user/Desktop/NDK/toolchains/arm-linux-androideabi-4.4.3/prebuilt/linux-x86/bin/arm-linux-androideabi-gcc --sysroot=/home/user/Desktop/NDK/platforms/android-14/arch-arm -I/home/user/Desktop/NDK/sources/android/cpufeatures/ -O3 -c -o /tmp/vpx-conf-4566-18429.o /tmp/vpx-conf-4566-4241.c
check_cflags -fPIC
check_cc -fPIC
BEGIN /tmp/vpx-conf-4566-4241.c
    1	int x;
END /tmp/vpx-conf-4566-4241.c
/home/user/Desktop/NDK/toolchains/arm-linux-androideabi-4.4.3/prebuilt/linux-x86/bin/arm-linux-androideabi-gcc --sysroot=/home/user/Desktop/NDK/platforms/android-14/arch-arm -I/home/user/Desktop/NDK/sources/android/cpufeatures/ -O3 -fPIC -c -o /tmp/vpx-conf-4566-18429.o /tmp/vpx-conf-4566-4241.c
check_cc
BEGIN /tmp/vpx-conf-4566-4241.c
    1	    unsigned int e = 'O'<<24 | '2'<<16 | 'B'<<8 | 'E';
END /tmp/vpx-conf-4566-4241.c
/home/user/Desktop/NDK/toolchains/arm-linux-androideabi-4.4.3/prebuilt/linux-x86/bin/arm-linux-androideabi-gcc --sysroot=/home/user/Desktop/NDK/platforms/android-14/arch-arm -I/home/user/Desktop/NDK/sources/android/cpufeatures/ -O3 -fPIC -c -o /tmp/vpx-conf-4566-18429.o /tmp/vpx-conf-4566-4241.c
check_header unistd.h
check_cpp
BEGIN /tmp/vpx-conf-4566-4241.c
    1	#include "unistd.h"
    2	int x;
END /tmp/vpx-conf-4566-4241.c
/home/user/Desktop/NDK/toolchains/arm-linux-androideabi-4.4.3/prebuilt/linux-x86/bin/arm-linux-androideabi-gcc --sysroot=/home/user/Desktop/NDK/platforms/android-14/arch-arm -I/home/user/Desktop/NDK/sources/android/cpufeatures/ -O3 -fPIC -E -o /tmp/vpx-conf-4566-18429.o /tmp/vpx-conf-4566-4241.c
check_cflags -Wall
check_cc -Wall
BEGIN /tmp/vpx-conf-4566-4241.c
    1	int x;
END /tmp/vpx-conf-4566-4241.c
/home/user/Desktop/NDK/toolchains/arm-linux-androideabi-4.4.3/prebuilt/linux-x86/bin/arm-linux-androideabi-gcc --sysroot=/home/user/Desktop/NDK/platforms/android-14/arch-arm -I/home/user/Desktop/NDK/sources/android/cpufeatures/ -O3 -fPIC -Wall -c -o /tmp/vpx-conf-4566-18429.o /tmp/vpx-conf-4566-4241.c
check_cflags -Wdeclaration-after-statement
check_cc -Wdeclaration-after-statement
BEGIN /tmp/vpx-conf-4566-4241.c
    1	int x;
END /tmp/vpx-conf-4566-4241.c
/home/user/Desktop/NDK/toolchains/arm-linux-androideabi-4.4.3/prebuilt/linux-x86/bin/arm-linux-androideabi-gcc --sysroot=/home/user/Desktop/NDK/platforms/android-14/arch-arm -I/home/user/Desktop/NDK/sources/android/cpufeatures/ -O3 -fPIC -Wall -Wdeclaration-after-statement -c -o /tmp/vpx-conf-4566-18429.o /tmp/vpx-conf-4566-4241.c
check_cflags -Wdisabled-optimization
check_cc -Wdisabled-optimization
BEGIN /tmp/vpx-conf-4566-4241.c
    1	int x;
END /tmp/vpx-conf-4566-4241.c
/home/user/Desktop/NDK/toolchains/arm-linux-androideabi-4.4.3/prebuilt/linux-x86/bin/arm-linux-androideabi-gcc --sysroot=/home/user/Desktop/NDK/platforms/android-14/arch-arm -I/home/user/Desktop/NDK/sources/android/cpufeatures/ -O3 -fPIC -Wall -Wdeclaration-after-statement -Wdisabled-optimization -c -o /tmp/vpx-conf-4566-18429.o /tmp/vpx-conf-4566-4241.c
check_cflags -Wpointer-arith
check_cc -Wpointer-arith
BEGIN /tmp/vpx-conf-4566-4241.c
    1	int x;
END /tmp/vpx-conf-4566-4241.c
/home/user/Desktop/NDK/toolchains/arm-linux-androideabi-4.4.3/prebuilt/linux-x86/bin/arm-linux-androideabi-gcc --sysroot=/home/user/Desktop/NDK/platforms/android-14/arch-arm -I/home/user/Desktop/NDK/sources/android/cpufeatures/ -O3 -fPIC -Wall -Wdeclaration-after-statement -Wdisabled-optimization -Wpointer-arith -c -o /tmp/vpx-conf-4566-18429.o /tmp/vpx-conf-4566-4241.c
check_cflags -Wtype-limits
check_cc -Wtype-limits
BEGIN /tmp/vpx-conf-4566-4241.c
    1	int x;
END /tmp/vpx-conf-4566-4241.c
/home/user/Desktop/NDK/toolchains/arm-linux-androideabi-4.4.3/prebuilt/linux-x86/bin/arm-linux-androideabi-gcc --sysroot=/home/user/Desktop/NDK/platforms/android-14/arch-arm -I/home/user/Desktop/NDK/sources/android/cpufeatures/ -O3 -fPIC -Wall -Wdeclaration-after-statement -Wdisabled-optimization -Wpointer-arith -Wtype-limits -c -o /tmp/vpx-conf-4566-18429.o /tmp/vpx-conf-4566-4241.c
check_cflags -Wcast-qual
check_cc -Wcast-qual
BEGIN /tmp/vpx-conf-4566-4241.c
    1	int x;
END /tmp/vpx-conf-4566-4241.c
/home/user/Desktop/NDK/toolchains/arm-linux-androideabi-4.4.3/prebuilt/linux-x86/bin/arm-linux-androideabi-gcc --sysroot=/home/user/Desktop/NDK/platforms/android-14/arch-arm -I/home/user/Desktop/NDK/sources/android/cpufeatures/ -O3 -fPIC -Wall -Wdeclaration-after-statement -Wdisabled-optimization -Wpointer-arith -Wtype-limits -Wcast-qual -c -o /tmp/vpx-conf-4566-18429.o /tmp/vpx-conf-4566-4241.c
check_cflags -Wimplicit-function-declaration
check_cc -Wimplicit-function-declaration
BEGIN /tmp/vpx-conf-4566-4241.c
    1	int x;
END /tmp/vpx-conf-4566-4241.c
/home/user/Desktop/NDK/toolchains/arm-linux-androideabi-4.4.3/prebuilt/linux-x86/bin/arm-linux-androideabi-gcc --sysroot=/home/user/Desktop/NDK/platforms/android-14/arch-arm -I/home/user/Desktop/NDK/sources/android/cpufeatures/ -O3 -fPIC -Wall -Wdeclaration-after-statement -Wdisabled-optimization -Wpointer-arith -Wtype-limits -Wcast-qual -Wimplicit-function-declaration -c -o /tmp/vpx-conf-4566-18429.o /tmp/vpx-conf-4566-4241.c
check_cflags -Wuninitialized
check_cc -Wuninitialized
BEGIN /tmp/vpx-conf-4566-4241.c
    1	int x;
END /tmp/vpx-conf-4566-4241.c
/home/user/Desktop/NDK/toolchains/arm-linux-androideabi-4.4.3/prebuilt/linux-x86/bin/arm-linux-androideabi-gcc --sysroot=/home/user/Desktop/NDK/platforms/android-14/arch-arm -I/home/user/Desktop/NDK/sources/android/cpufeatures/ -O3 -fPIC -Wall -Wdeclaration-after-statement -Wdisabled-optimization -Wpointer-arith -Wtype-limits -Wcast-qual -Wimplicit-function-declaration -Wuninitialized -c -o /tmp/vpx-conf-4566-18429.o /tmp/vpx-conf-4566-4241.c
check_cflags -Wunused-variable
check_cc -Wunused-variable
BEGIN /tmp/vpx-conf-4566-4241.c
    1	int x;
END /tmp/vpx-conf-4566-4241.c
/home/user/Desktop/NDK/toolchains/arm-linux-androideabi-4.4.3/prebuilt/linux-x86/bin/arm-linux-androideabi-gcc --sysroot=/home/user/Desktop/NDK/platforms/android-14/arch-arm -I/home/user/Desktop/NDK/sources/android/cpufeatures/ -O3 -fPIC -Wall -Wdeclaration-after-statement -Wdisabled-optimization -Wpointer-arith -Wtype-limits -Wcast-qual -Wimplicit-function-declaration -Wuninitialized -Wunused-variable -c -o /tmp/vpx-conf-4566-18429.o /tmp/vpx-conf-4566-4241.c
check_cflags -Wunused-but-set-variable
check_cc -Wunused-but-set-variable
BEGIN /tmp/vpx-conf-4566-4241.c
    1	int x;
END /tmp/vpx-conf-4566-4241.c
/home/user/Desktop/NDK/toolchains/arm-linux-androideabi-4.4.3/prebuilt/linux-x86/bin/arm-linux-androideabi-gcc --sysroot=/home/user/Desktop/NDK/platforms/android-14/arch-arm -I/home/user/Desktop/NDK/sources/android/cpufeatures/ -O3 -fPIC -Wall -Wdeclaration-after-statement -Wdisabled-optimization -Wpointer-arith -Wtype-limits -Wcast-qual -Wimplicit-function-declaration -Wuninitialized -Wunused-variable -Wunused-but-set-variable -c -o /tmp/vpx-conf-4566-18429.o /tmp/vpx-conf-4566-4241.c
cc1: error: unrecognized command line option "-Wunused-but-set-variable"
check_cflags -Wno-unused-function
check_cc -Wno-unused-function
BEGIN /tmp/vpx-conf-4566-4241.c
    1	int x;
END /tmp/vpx-conf-4566-4241.c
/home/user/Desktop/NDK/toolchains/arm-linux-androideabi-4.4.3/prebuilt/linux-x86/bin/arm-linux-androideabi-gcc --sysroot=/home/user/Desktop/NDK/platforms/android-14/arch-arm -I/home/user/Desktop/NDK/sources/android/cpufeatures/ -O3 -fPIC -Wall -Wdeclaration-after-statement -Wdisabled-optimization -Wpointer-arith -Wtype-limits -Wcast-qual -Wimplicit-function-declaration -Wuninitialized -Wunused-variable -Wno-unused-function -c -o /tmp/vpx-conf-4566-18429.o /tmp/vpx-conf-4566-4241.c
check_header stdio.h
check_cpp
BEGIN /tmp/vpx-conf-4566-4241.c
    1	#include "stdio.h"
    2	int x;
END /tmp/vpx-conf-4566-4241.c
/home/user/Desktop/NDK/toolchains/arm-linux-androideabi-4.4.3/prebuilt/linux-x86/bin/arm-linux-androideabi-gcc --sysroot=/home/user/Desktop/NDK/platforms/android-14/arch-arm -I/home/user/Desktop/NDK/sources/android/cpufeatures/ -O3 -fPIC -Wall -Wdeclaration-after-statement -Wdisabled-optimization -Wpointer-arith -Wtype-limits -Wcast-qual -Wimplicit-function-declaration -Wuninitialized -Wunused-variable -Wno-unused-function -E -o /tmp/vpx-conf-4566-18429.o /tmp/vpx-conf-4566-4241.c
check_ld
check_cc
BEGIN /tmp/vpx-conf-4566-4241.c
    1	int main(void) {return 0;}
END /tmp/vpx-conf-4566-4241.c
/home/user/Desktop/NDK/toolchains/arm-linux-androideabi-4.4.3/prebuilt/linux-x86/bin/arm-linux-androideabi-gcc --sysroot=/home/user/Desktop/NDK/platforms/android-14/arch-arm -I/home/user/Desktop/NDK/sources/android/cpufeatures/ -O3 -fPIC -Wall -Wdeclaration-after-statement -Wdisabled-optimization -Wpointer-arith -Wtype-limits -Wcast-qual -Wimplicit-function-declaration -Wuninitialized -Wunused-variable -Wno-unused-function -c -o /tmp/vpx-conf-4566-18429.o /tmp/vpx-conf-4566-4241.c
/home/user/Desktop/NDK/toolchains/arm-linux-androideabi-4.4.3/prebuilt/linux-x86/bin/arm-linux-androideabi-gcc --sysroot=/home/user/Desktop/NDK/platforms/android-14/arch-arm -o /tmp/vpx-conf-4566-22906.x /tmp/vpx-conf-4566-18429.o
check_header stdint.h
check_cpp
BEGIN /tmp/vpx-conf-4566-4241.c
    1	#include "stdint.h"
    2	int x;
END /tmp/vpx-conf-4566-4241.c
/home/user/Desktop/NDK/toolchains/arm-linux-androideabi-4.4.3/prebuilt/linux-x86/bin/arm-linux-androideabi-gcc --sysroot=/home/user/Desktop/NDK/platforms/android-14/arch-arm -I/home/user/Desktop/NDK/sources/android/cpufeatures/ -O3 -fPIC -Wall -Wdeclaration-after-statement -Wdisabled-optimization -Wpointer-arith -Wtype-limits -Wcast-qual -Wimplicit-function-declaration -Wuninitialized -Wunused-variable -Wno-unused-function -E -o /tmp/vpx-conf-4566-18429.o /tmp/vpx-conf-4566-4241.c
check_header pthread.h
check_cpp
BEGIN /tmp/vpx-conf-4566-4241.c
    1	#include "pthread.h"
    2	int x;
END /tmp/vpx-conf-4566-4241.c
/home/user/Desktop/NDK/toolchains/arm-linux-androideabi-4.4.3/prebuilt/linux-x86/bin/arm-linux-androideabi-gcc --sysroot=/home/user/Desktop/NDK/platforms/android-14/arch-arm -I/home/user/Desktop/NDK/sources/android/cpufeatures/ -O3 -fPIC -Wall -Wdeclaration-after-statement -Wdisabled-optimization -Wpointer-arith -Wtype-limits -Wcast-qual -Wimplicit-function-declaration -Wuninitialized -Wunused-variable -Wno-unused-function -E -o /tmp/vpx-conf-4566-18429.o /tmp/vpx-conf-4566-4241.c
check_header sys/mman.h
check_cpp
BEGIN /tmp/vpx-conf-4566-4241.c
    1	#include "sys/mman.h"
    2	int x;
END /tmp/vpx-conf-4566-4241.c
/home/user/Desktop/NDK/toolchains/arm-linux-androideabi-4.4.3/prebuilt/linux-x86/bin/arm-linux-androideabi-gcc --sysroot=/home/user/Desktop/NDK/platforms/android-14/arch-arm -I/home/user/Desktop/NDK/sources/android/cpufeatures/ -O3 -fPIC -Wall -Wdeclaration-after-statement -Wdisabled-optimization -Wpointer-arith -Wtype-limits -Wcast-qual -Wimplicit-function-declaration -Wuninitialized -Wunused-variable -Wno-unused-function -E -o /tmp/vpx-conf-4566-18429.o /tmp/vpx-conf-4566-4241.c
check_header vpx/vpx_integer.h -I../../sources
check_cpp -I../../sources
BEGIN /tmp/vpx-conf-4566-4241.c
    1	#include "vpx/vpx_integer.h"
    2	int x;
END /tmp/vpx-conf-4566-4241.c
/home/user/Desktop/NDK/toolchains/arm-linux-androideabi-4.4.3/prebuilt/linux-x86/bin/arm-linux-androideabi-gcc --sysroot=/home/user/Desktop/NDK/platforms/android-14/arch-arm -I/home/user/Desktop/NDK/sources/android/cpufeatures/ -O3 -fPIC -Wall -Wdeclaration-after-statement -Wdisabled-optimization -Wpointer-arith -Wtype-limits -Wcast-qual -Wimplicit-function-declaration -Wuninitialized -Wunused-variable -Wno-unused-function -I../../sources -E -o /tmp/vpx-conf-4566-18429.o /tmp/vpx-conf-4566-4241.c
